module github.com/fanfit/user-service

go 1.14

require (
	github.com/alecthomas/template v0.0.0-20190718012654-fb15b899a751
	github.com/auth0/go-jwt-middleware v0.0.0-20200507191422-d30d7b9ece63
	github.com/cpuguy83/go-md2man/v2 v2.0.0 // indirect
	github.com/dgrijalva/jwt-go v3.2.0+incompatible
	github.com/gin-contrib/cors v1.3.1
	github.com/gin-gonic/gin v1.7.2
	github.com/go-openapi/spec v0.20.3 // indirect
	github.com/go-openapi/swag v0.19.15 // indirect
	github.com/go-playground/validator/v10 v10.6.1 // indirect
	github.com/gofrs/uuid v3.3.0+incompatible // indirect
	github.com/golang/protobuf v1.5.2 // indirect
	github.com/jackc/pgx v3.6.2+incompatible
	github.com/jackc/pgx/v4 v4.11.0 // indirect
	github.com/json-iterator/go v1.1.11 // indirect
	github.com/leodido/go-urn v1.2.1 // indirect
	github.com/mailru/easyjson v0.7.7 // indirect
	github.com/mattn/go-isatty v0.0.13 // indirect
	github.com/mitchellh/mapstructure v1.3.2 // indirect
	github.com/neo4j/neo4j-go-driver v1.8.0 // indirect
	github.com/newrelic/go-agent v3.9.0+incompatible // indirect
	github.com/russross/blackfriday/v2 v2.1.0 // indirect
	github.com/sirupsen/logrus v1.7.0
	github.com/spf13/viper v1.7.1 // indirect
	github.com/stretchr/testify v1.6.1
	github.com/swaggo/files v0.0.0-20190704085106-630677cd5c14
	github.com/swaggo/gin-swagger v1.3.0
	github.com/swaggo/swag v1.7.0
	github.com/ugorji/go v1.2.6 // indirect
	golang.org/x/crypto v0.0.0-20210513164829-c07d793c2f9a // indirect
	golang.org/x/net v0.0.0-20210525063256-abc453219eb5 // indirect
	golang.org/x/sys v0.0.0-20210525143221-35b2ab0089ea // indirect
	golang.org/x/tools v0.1.2 // indirect
	google.golang.org/genproto v0.0.0-20200526211855-cb27e3aa2013 // indirect
	gopkg.in/alexcesaro/statsd.v2 v2.0.0 // indirect
)
